<svg xmlns="http://www.w3.org/2000/svg" width="692" height="750"><foreignObject x="0" y="0" width="100%" height="100%"><div class="content" id="content" xmlns="http://www.w3.org/1999/xhtml" style="align-items: center; background-image: linear-gradient(to right, rgb(226, 226, 226), rgb(201, 214, 255)); color: rgb(248, 248, 242); display: flex; font-family: -apple-system, &quot;system-ui&quot;, sans-serif; font-size: 13px; inline-size: 632.219px; justify-content: center; padding-block: 30px; padding: 30px; padding-inline: 30px; width: 632.219px; -webkit-locale: &quot;en&quot;;">
      <div class="container bounce" id="container" style="animation-duration: 0.3s; animation-name: bounceF; animation-timing-function: cubic-bezier(0.28, 0.84, 0.42, 1); border-radius: 5px; border-end-end-radius: 5px; border-end-start-radius: 5px; border-start-end-radius: 5px; border-start-start-radius: 5px; box-shadow: rgba(0, 0, 0, 0.3) 0px 20px 60px 0px; display: flex; min-inline-size: 100px; min-width: 100px; overflow: hidden; transition-duration: 0.2s; transition-property: opacity;">
        <div>
          <div class="title" style="align-items: center; background-color: rgb(36, 36, 36); block-size: 35px; border-start-end-radius: 5px; border-start-start-radius: 5px; border-top-left-radius: 5px; border-top-right-radius: 5px; cursor: default; display: flex; height: 35px; padding-block: 3px; padding: 3px 18px; padding-inline: 18px;">
            <div class="dot dotA" style="background-color: rgb(255, 95, 85); block-size: 10px; border-radius: 50%; border-end-end-radius: 50%; border-end-start-radius: 50%; border-start-end-radius: 50%; border-start-start-radius: 50%; height: 10px; inline-size: 10px; margin-inline-end: 5px; margin-right: 5px; width: 10px;"></div>
            <div class="dot dotB" style="background-color: rgb(255, 189, 45); block-size: 10px; border-radius: 50%; border-end-end-radius: 50%; border-end-start-radius: 50%; border-start-end-radius: 50%; border-start-start-radius: 50%; height: 10px; inline-size: 10px; margin-inline-end: 5px; margin-right: 5px; width: 10px;"></div>
            <div class="dot dotC" style="background-color: rgb(37, 201, 63); block-size: 10px; border-radius: 50%; border-end-end-radius: 50%; border-end-start-radius: 50%; border-start-end-radius: 50%; border-start-start-radius: 50%; height: 10px; inline-size: 10px; margin-inline-end: 5px; margin-right: 5px; width: 10px;"></div>
            <div id="title" class="text" style="margin-inline-start: 10px; margin-left: 10px;">answer.tsx</div>
          </div>
          <div class="wrapper" style="background-color: rgb(36, 36, 36); display: flex; min-block-size: 150px; min-height: 150px; min-inline-size: 250px; min-width: 250px; padding-block: 10px; padding: 10px 18px; padding-inline: 18px;">
            <div id="lines" style="display: flex; flex-direction: column; margin-inline-end: 15px; margin-right: 15px; padding-block-end: 5px; padding-bottom: 5px; padding-inline-end: 5px; padding-right: 5px;"><span style="line-height: 28px; color: rgb(133, 133, 133); cursor: default; font-family: &quot;Victor Mono&quot;, Inconsolata, Menlo, Monaco, &quot;Courier New&quot;, monospace; font-size: 16px;">14</span><span style="line-height: 28px; color: rgb(133, 133, 133); cursor: default; font-family: &quot;Victor Mono&quot;, Inconsolata, Menlo, Monaco, &quot;Courier New&quot;, monospace; font-size: 16px;">15</span><span style="line-height: 28px; color: rgb(133, 133, 133); cursor: default; font-family: &quot;Victor Mono&quot;, Inconsolata, Menlo, Monaco, &quot;Courier New&quot;, monospace; font-size: 16px;">16</span><span style="line-height: 28px; color: rgb(133, 133, 133); cursor: default; font-family: &quot;Victor Mono&quot;, Inconsolata, Menlo, Monaco, &quot;Courier New&quot;, monospace; font-size: 16px;">17</span><span style="line-height: 28px; color: rgb(133, 133, 133); cursor: default; font-family: &quot;Victor Mono&quot;, Inconsolata, Menlo, Monaco, &quot;Courier New&quot;, monospace; font-size: 16px;">18</span><span style="line-height: 28px; color: rgb(133, 133, 133); cursor: default; font-family: &quot;Victor Mono&quot;, Inconsolata, Menlo, Monaco, &quot;Courier New&quot;, monospace; font-size: 16px;">19</span><span style="line-height: 28px; color: rgb(133, 133, 133); cursor: default; font-family: &quot;Victor Mono&quot;, Inconsolata, Menlo, Monaco, &quot;Courier New&quot;, monospace; font-size: 16px;">20</span><span style="line-height: 28px; color: rgb(133, 133, 133); cursor: default; font-family: &quot;Victor Mono&quot;, Inconsolata, Menlo, Monaco, &quot;Courier New&quot;, monospace; font-size: 16px;">21</span><span style="line-height: 28px; color: rgb(133, 133, 133); cursor: default; font-family: &quot;Victor Mono&quot;, Inconsolata, Menlo, Monaco, &quot;Courier New&quot;, monospace; font-size: 16px;">22</span><span style="line-height: 28px; color: rgb(133, 133, 133); cursor: default; font-family: &quot;Victor Mono&quot;, Inconsolata, Menlo, Monaco, &quot;Courier New&quot;, monospace; font-size: 16px;">23</span><span style="line-height: 28px; color: rgb(133, 133, 133); cursor: default; font-family: &quot;Victor Mono&quot;, Inconsolata, Menlo, Monaco, &quot;Courier New&quot;, monospace; font-size: 16px;">24</span><span style="line-height: 28px; color: rgb(133, 133, 133); cursor: default; font-family: &quot;Victor Mono&quot;, Inconsolata, Menlo, Monaco, &quot;Courier New&quot;, monospace; font-size: 16px;">25</span><span style="line-height: 28px; color: rgb(133, 133, 133); cursor: default; font-family: &quot;Victor Mono&quot;, Inconsolata, Menlo, Monaco, &quot;Courier New&quot;, monospace; font-size: 16px;">26</span><span style="line-height: 28px; color: rgb(133, 133, 133); cursor: default; font-family: &quot;Victor Mono&quot;, Inconsolata, Menlo, Monaco, &quot;Courier New&quot;, monospace; font-size: 16px;">27</span><span style="line-height: 28px; color: rgb(133, 133, 133); cursor: default; font-family: &quot;Victor Mono&quot;, Inconsolata, Menlo, Monaco, &quot;Courier New&quot;, monospace; font-size: 16px;">28</span><span style="line-height: 28px; color: rgb(133, 133, 133); cursor: default; font-family: &quot;Victor Mono&quot;, Inconsolata, Menlo, Monaco, &quot;Courier New&quot;, monospace; font-size: 16px;">29</span><span style="line-height: 28px; color: rgb(133, 133, 133); cursor: default; font-family: &quot;Victor Mono&quot;, Inconsolata, Menlo, Monaco, &quot;Courier New&quot;, monospace; font-size: 16px;">30</span><span style="line-height: 28px; color: rgb(133, 133, 133); cursor: default; font-family: &quot;Victor Mono&quot;, Inconsolata, Menlo, Monaco, &quot;Courier New&quot;, monospace; font-size: 16px;">31</span><span style="line-height: 28px; color: rgb(133, 133, 133); cursor: default; font-family: &quot;Victor Mono&quot;, Inconsolata, Menlo, Monaco, &quot;Courier New&quot;, monospace; font-size: 16px;">32</span><span style="line-height: 28px; color: rgb(133, 133, 133); cursor: default; font-family: &quot;Victor Mono&quot;, Inconsolata, Menlo, Monaco, &quot;Courier New&quot;, monospace; font-size: 16px;">33</span><span style="line-height: 28px; color: rgb(133, 133, 133); cursor: default; font-family: &quot;Victor Mono&quot;, Inconsolata, Menlo, Monaco, &quot;Courier New&quot;, monospace; font-size: 16px;">34</span></div>
            <div id="output"><div id="code" style="display: block;"><meta charset="utf-8" style="display: none;" /><div style="background-color: rgb(36, 36, 36); font-family: &quot;Victor Mono&quot;, Inconsolata, Menlo, Monaco, &quot;Courier New&quot;, monospace, Menlo, Monaco, &quot;Courier New&quot;, monospace; font-size: 16px; line-height: 28px; white-space: pre; display: block;"><div style="display: block;"><span style="color: #66d9ef;font-style: italic;">const</span><span style=""> </span><span style="color: #a6e22e;">mapping</span><span style=""> </span><span style="color: #f92672;">=</span><span style=""> (</span><span style="color: #fd971f;font-style: italic;">arr</span><span style="color: #f92672;">:</span><span style=""> </span><span style="color: #66d9ef;font-style: italic;">string</span><span style="">[])</span><span style="color: #f92672;">:</span><span style=""> { [</span><span style="color: #fd971f;font-style: italic;">key</span><span style="color: #f92672;">:</span><span style=""> </span><span style="color: #66d9ef;font-style: italic;">string</span><span style="">]</span><span style="color: #f92672;">:</span><span style=""> </span><span style="color: #66d9ef;font-style: italic;">string</span><span style="">; } </span><span style="color: #66d9ef;font-style: italic;">=&gt;</span><span style=""> {</span></div><div style="display: block;"><span style="">        </span><span style="color: #66d9ef;font-style: italic;">let</span><span style=""> tree</span><span style="color: #f92672;">:</span><span style=""> { [</span><span style="color: #fd971f;font-style: italic;">key</span><span style="color: #f92672;">:</span><span style=""> </span><span style="color: #66d9ef;font-style: italic;">string</span><span style="">]</span><span style="color: #f92672;">:</span><span style=""> </span><span style="color: #66d9ef;font-style: italic;">any</span><span style=""> } </span><span style="color: #f92672;">=</span><span style=""> {};</span></div><div style="display: block;"><span style="">        </span><span style="color: #f92672;">for</span><span style=""> (</span><span style="color: #66d9ef;font-style: italic;">let</span><span style=""> i </span><span style="color: #f92672;">=</span><span style=""> </span><span style="color: #ff80f4;">0</span><span style="">; i </span><span style="color: #f92672;">&lt;</span><span style=""> arr.length; i</span><span style="color: #f92672;">++</span><span style="">) {</span></div><div style="display: block;"><span style="">            </span><span style="color: #66d9ef;font-style: italic;">let</span><span style=""> path </span><span style="color: #f92672;">=</span><span style=""> arr[i].</span><span style="color: #a6e22e;">split</span><span style="">(</span><span style="color: #ffee99;">"."</span><span style="">);</span></div><div style="display: block;"><span style="">            </span><span style="color: #66d9ef;font-style: italic;">let</span><span style=""> node</span><span style="color: #f92672;">:</span><span style=""> </span><span style="color: #66d9ef;font-style: italic;">any</span><span style=""> </span><span style="color: #f92672;">=</span><span style=""> tree;</span></div><div style="display: block;"><span style="">            </span><span style="color: #f92672;">for</span><span style=""> (</span><span style="color: #66d9ef;font-style: italic;">let</span><span style=""> j </span><span style="color: #f92672;">=</span><span style=""> </span><span style="color: #ff80f4;">0</span><span style="">; j </span><span style="color: #f92672;">&lt;</span><span style=""> path.length </span><span style="color: #f92672;">-</span><span style=""> </span><span style="color: #ff80f4;">1</span><span style="">; j</span><span style="color: #f92672;">++</span><span style="">) {</span></div><div style="display: block;"><span style="">                </span><span style="color: #f92672;">if</span><span style=""> (</span><span style="color: #f92672;">!</span><span style="">node[path[j]]) {</span></div><div style="display: block;"><span style="">                    node[path[j]] </span><span style="color: #f92672;">=</span><span style=""> {};</span></div><div style="display: block;"><span style="">                }</span></div><div style="display: block;"><span style="">                </span><span style="color: #f92672;">if</span><span style=""> (path.length </span><span style="color: #f92672;">===</span><span style=""> </span><span style="color: #ff80f4;">4</span><span style=""> </span><span style="color: #f92672;">&amp;&amp;</span><span style=""> j </span><span style="color: #f92672;">===</span><span style=""> </span><span style="color: #ff80f4;">2</span><span style="">) {</span></div><div style="display: block;"><span style="">                    path.</span><span style="color: #a6e22e;">splice</span><span style="">(</span><span style="color: #f92672;">-</span><span style="color: #ff80f4;">1</span><span style="">);</span></div><div style="display: block;"><span style="">                    node[path[j]] </span><span style="color: #f92672;">=</span><span style=""> path.</span><span style="color: #a6e22e;">join</span><span style="">(</span><span style="color: #ffee99;">"."</span><span style="">);</span></div><div style="display: block;"><span style="">                } </span><span style="color: #f92672;">else</span><span style=""> {</span></div><div style="display: block;"><span style="">                    node </span><span style="color: #f92672;">=</span><span style=""> node[path[j]];</span></div><div style="display: block;"><span style="">                }</span></div><div style="display: block;"><span style="">            }</span></div><div style="display: block;"><span style="">            </span><span style="color: #f92672;">if</span><span style=""> (path.length </span><span style="color: #f92672;">===</span><span style=""> </span><span style="color: #ff80f4;">4</span><span style="">) {</span></div><div style="display: block;"><span style="">            }</span></div><div style="display: block;"><span style="">        }</span></div><div style="display: block;"><span style="">        </span><span style="color: #f92672;">return</span><span style=""> tree;</span></div><div style="display: block;"><span style="">    }</span></div></div></div></div>
          </div>
          <div class="footer" id="footer" style="display: flex; background-color: rgb(36, 36, 36); border-bottom-left-radius: 5px; border-bottom-right-radius: 5px; border-end-end-radius: 5px; border-end-start-radius: 5px; justify-content: center; padding-block: 8px 12px; padding: 8px 8px 12px; padding-inline: 8px;">Snipped</div>
        </div>
      </div>  
    <style></style></div></foreignObject></svg>